module github.com/ilyaglow/badcapt

go 1.12

require (
	github.com/fortytw2/leaktest v1.2.0 // indirect
	github.com/go-telegram-bot-api/telegram-bot-api v4.6.4+incompatible
	github.com/google/go-cmp v0.2.0 // indirect
	github.com/google/gopacket v1.1.17
	github.com/mailru/easyjson v0.7.0 // indirect
	github.com/olivere/elastic v6.2.26+incompatible
	github.com/pkg/errors v0.8.1 // indirect
	github.com/technoweenie/multipartstreamer v1.0.1 // indirect
	golang.org/x/net v0.0.0-20191209160850-c0dbc17a3553 // indirect
	golang.org/x/sys v0.0.0-20191210023423-ac6580df4449 // indirect
)
